…
    temperance-5 
    question 
    > library(marginaleffects)
> 

    temperance-6 
    question 
    The specific question we are trying to answer is whether the probability of being arrested during a traffic stop differs between Black and White drivers. 

    temperance-7 
    question 
    > predict(fit_stops, new_data = x)
# A tibble: 378,467 × 1
   .pred
   <dbl>
 1 0.179
 2 0.142
 3 0.250
 4 0.142
 5 0.232
 6 0.207
 7 0.152
 8 0.317
 9 0.317
10 0.245
# ℹ 378,457 more rows
# ℹ Use `print(n = ...)` to see more rows
…
